{
	"info": {
		"_postman_id": "7fb281a1-5ccd-4622-a83e-0f1316bb98ed",
		"name": "Ejercicio 2",
		"schema": "https://schema.getpostman.com/json/collection/v2.1.0/collection.json"
	},
	"item": [
		{
			"name": "POST presupuestar",
			"request": {
				"method": "POST",
				"header": [],
				"body": {
					"mode": "raw",
					"raw": "{\n    \"cuit\": \"20445556667\",\n    \"tipo_evento\": \"casamiento\",\n    \"nivel_servicio\": \"normal\",\n    \"fecha\": \"2021-05-01\",\n    \"salon\": false\n}",
					"options": {
						"raw": {
							"language": "json"
						}
					}
				},
				"url": {
					"raw": "localhost:4567/presupuestos",
					"host": [
						"localhost"
					],
					"port": "4567",
					"path": [
						"presupuestos"
					]
				}
			},
			"response": []
		},
		{
			"name": "PATCH Presupuestos",
			"request": {
				"method": "PATCH",
				"header": [],
				"body": {
					"mode": "raw",
					"raw": "{\n    \"cantidad_comensales\": \"10\",\n    \"menu\": \"mixto\"\n}",
					"options": {
						"raw": {
							"language": "json"
						}
					}
				},
				"url": {
					"raw": "localhost:4567/presupuestos/1",
					"host": [
						"localhost"
					],
					"port": "4567",
					"path": [
						"presupuestos",
						"1"
					]
				}
			},
			"response": []
		},
		{
			"name": "GET presupuestar",
			"request": {
				"method": "GET",
				"header": [],
				"url": {
					"raw": "localhost:4567/presupuestos/1",
					"host": [
						"localhost"
					],
					"port": "4567",
					"path": [
						"presupuestos",
						"1"
					]
				}
			},
			"response": []
		}
	]
}